module bitbucket.org/anatoly_a_shipov/aena-etl

go 1.17

require github.com/jackc/pgx/v4 v4.17.2

require (
	github.com/jackc/chunkreader/v2 v2.0.1 // indirect
	github.com/jackc/pgconn v1.13.0 // indirect
	github.com/jackc/pgio v1.0.0 // indirect
	github.com/jackc/pgpassfile v1.0.0 // indirect
	github.com/jackc/pgproto3/v2 v2.3.1 // indirect
	github.com/jackc/pgservicefile v0.0.0-20221227161230-091c0ba34f0a // indirect
	github.com/jackc/pgtype v1.13.0 // indirect
	github.com/jackc/puddle v1.3.0 // indirect
	golang.org/x/crypto v0.5.0 // indirect
	golang.org/x/text v0.6.0 // indirect
)
